…
Tidying the data

```r
dart <- filter(dart, contest_period != "Average") %>%
  separate(contest_period, into = c("junk", "period"), sep = "-") %>%
  select(-junk) %>% 
  separate(period, c("month_end", "year_end"), sep = -4) %>% 
  write_rds("darts.rds")

read_rds("darts.rds")
```

```
## # A tibble: 300 x 4
##    month_end year_end variable  value
##    <chr>     <chr>    <chr>     <dbl>
##  1 June      1990     PROS      12.7 
##  2 July      1990     PROS      26.4 
##  3 August    1990     PROS       2.50
##  4 September 1990     PROS     -20.0 
##  5 October   1990     PROS     -37.8 
##  6 November  1990     PROS     -33.3 
##  7 December  1990     PROS     -10.2 
##  8 January   1991     PROS     -20.3 
##  9 February  1991     PROS      38.9 
## 10 March     1991     PROS      20.2 
## # ... with 290 more rows
```
…
