…
lengths <- c(rep(0,length(vowel_chains)))
i <-  0
for (string in vowel_chains) {
  i <- i + 1
  lengths[i] <- nchar(string)
}
tibble(vowel_chains, lengths) %>% 
  arrange(desc(lengths))
```

```
## # A tibble: 10,266 x 2
##    vowel_chains lengths
##    <chr>          <dbl>
##  1 oaaoooo           7.
##  2 iieuai            6.
##  3 iuiuie            6.
##  4 auouia            6.
##  5 eaeui             5.
##  6 ouuea             5.
##  7 uaeii             5.
##  8 eueo              4.
##  9 oouo              4.
## 10 aiae              4.
## # ... with 10,256 more rows
```
